digraph G {
    graph [ autosize = false, size = "6.27,9.69", ratio = "0.80", splines = "line" ];
    node  [ color = "#00A1DE", fontcolor = "#005B82"                               ];
    edge  [ color = "#005B82"                                                      ];

    p1 [ label = "P3", shape = circle, style = filled, fillcolor = "#005B82", fontcolor = white ];
    p2 [ label = "P5", shape = circle ];
    p3 [ label = "P4", shape = circle ];
    p4 [ label = "P2", shape = circle, style = filled, fillcolor = "#005B82", fontcolor = white ];
    p5 [ label = "P1", shape = circle ];

    p5 -> { p1 p2 p3 p4 } [ style = invisible, dir = none ];
    p2 -> p3              [ style = invisible, dir = none ];
    p4 -> p1              [ style = invisible, dir = none ];

    p1 -> p2 [ color = red   ];
    p1 -> p3 [ color = green ];
    p4 -> p3 [ color = green ];
    p4 -> p2 [ color = red   ];
}
