<?xml version="1.0" encoding="UTF-8" standalone="no"?>
<!-- Generated by graphviz version 2.38.0 (20140413.2041)
 -->
<!-- Title: G Pages: 1 -->
<svg width="348pt" height="281pt" viewBox="0.00 0.00 348.00 281.25" xmlns="http://www.w3.org/2000/svg" xmlns:xlink="http://www.w3.org/1999/xlink">
    <g id="graph0" class="graph" transform="scale(1 1) rotate(0) translate(4 277.248)">
        <title>G</title>
        <polygon fill="white" stroke="none" points="-4,4 -4,-277.248 344,-277.248 344,4 -4,4" />
        <!-- b0 -->
        <g id="node1" class="node">
            <title>b0</title>
            <polygon fill="none" stroke="#00a1de" points="102,-163.881 0,-163.881 0,-127.881 102,-127.881 102,-163.881" />
            <text text-anchor="middle" x="51" y="-142.181" font-family="Times New Roman,serif" font-size="14.00" fill="#005b82">Common chain</text>
        </g>
        <!-- b1 -->
        <g id="node2" class="node">
            <title>b1</title>
            <polygon fill="none" stroke="#00a1de" points="220.5,-244.881 147.5,-244.881 147.5,-206.881 220.5,-206.881 220.5,-244.881" />
            <text text-anchor="middle" x="184" y="-229.681" font-family="Times New Roman,serif" font-size="14.00" fill="#005b82">Block A'</text>
            <text text-anchor="middle" x="184" y="-214.681" font-family="Times New Roman,serif" font-size="14.00" fill="#005b82">(Attacker)</text>
        </g>
        <!-- b0&#45;&gt;b1 -->
        <g id="edge1" class="edge">
            <title>b0:e-&gt;b1:w</title>
            <path fill="none" stroke="#005b82" d="M102,-145.881C102,-145.881 129.667,-196.185 141.123,-217.014" />
            <polygon fill="#005b82" stroke="#005b82" points="138.114,-218.805 146,-225.881 144.248,-215.432 138.114,-218.805" />
        </g>
        <!-- b3 -->
        <g id="node4" class="node">
            <title>b3</title>
            <polygon fill="none" stroke="#00a1de" points="230.5,-92.3807 137.5,-92.3807 137.5,-39.3807 230.5,-39.3807 230.5,-92.3807" />
            <text text-anchor="middle" x="184" y="-77.1807" font-family="Times New Roman,serif" font-size="14.00" fill="#005b82">Block A</text>
            <text text-anchor="middle" x="184" y="-62.1807" font-family="Times New Roman,serif" font-size="14.00" fill="#005b82">w/ blacklisted</text>
            <text text-anchor="middle" x="184" y="-47.1807" font-family="Times New Roman,serif" font-size="14.00" fill="#005b82">transaction</text>
        </g>
        <!-- b0&#45;&gt;b3 -->
        <g id="edge2" class="edge">
            <title>b0:e-&gt;b3:w</title>
            <path fill="none" stroke="#005b82" d="M102,-145.881C102,-145.881 124.103,-96.0712 133.428,-75.0578" />
            <polygon fill="#005b82" stroke="#005b82" points="136.643,-76.4409 137.5,-65.8807 130.245,-73.6016 136.643,-76.4409" />
        </g>
        <!-- b2 -->
        <g id="node3" class="node">
            <title>b2</title>
            <polygon fill="none" stroke="#00a1de" points="339.5,-244.881 266.5,-244.881 266.5,-206.881 339.5,-206.881 339.5,-244.881" />
            <text text-anchor="middle" x="303" y="-229.681" font-family="Times New Roman,serif" font-size="14.00" fill="#005b82">Block B'</text>
            <text text-anchor="middle" x="303" y="-214.681" font-family="Times New Roman,serif" font-size="14.00" fill="#005b82">(Attacker)</text>
        </g>
        <!-- b1&#45;&gt;b2 -->
        <g id="edge3" class="edge">
            <title>b1:e-&gt;b2:w</title>
            <path fill="none" stroke="#005b82" d="M222,-225.881C222,-225.881 243.033,-225.881 256.179,-225.881" />
            <polygon fill="#005b82" stroke="#005b82" points="256.5,-229.381 266.5,-225.881 256.5,-222.381 256.5,-229.381" />
        </g>
        <!-- b4 -->
        <g id="node5" class="node">
            <title>b4</title>
            <polygon fill="none" stroke="#00a1de" points="334,-83.8807 272,-83.8807 272,-47.8807 334,-47.8807 334,-83.8807" />
            <text text-anchor="middle" x="303" y="-62.1807" font-family="Times New Roman,serif" font-size="14.00" fill="#005b82">Block B</text>
        </g>
        <!-- b3&#45;&gt;b4 -->
        <g id="edge4" class="edge">
            <title>b3:e-&gt;b4:w</title>
            <path fill="none" stroke="#005b82" d="M230.5,-65.8807C230.5,-65.8807 248.782,-65.8807 260.78,-65.8807" />
            <polygon fill="#005b82" stroke="#005b82" points="261,-69.3808 271,-65.8807 261,-62.3808 261,-69.3808" />
        </g>
    </g>
</svg>